{
    "volumes": [
        4593.9034692736905,
        4217.197095223538,
        1.089326243365959
    ],
    "central_local_density": [
        16.477919368658203,
        16.69243075226091,
        0.9871491823577789
    ],
    "gaslike_dists": [
        0.3761469465518951,
        0.3015624750188399,
        1.247326765468401
    ],
    "tumor_area": [
        387868251019.9967,
        476202048860.2425,
        0.8145035325831403
    ],
    "tumor_surface_orientation": [
        9.418347556199336,
        7.171840244727437,
        1.3132400102084645
    ]
}